<?xml version="1.0" encoding="UTF-8"?>
<svg width="600" height="600" version="1.1" xmlns="http://www.w3.org/2000/svg">
 <rect id="back" width="600" height="600" fill="#fff"/>
 <path id="logo" d="m169.93 221.89c-10.666 0-20.095 0.81871-28.571 2.7519h-0.1616c-8.4539 2.02-16.15 5.3048-22.663 10.279l-0.0808 0.0808c-6.47 5.0322-11.522 11.864-14.488 19.506h-0.0808v0.0808c-2.7709 7.3599-3.8851 15.358-3.8851 23.877v99.636h64.832v-87.171c0-4.2163 0.44631-7.1434 0.80938-8.4177 2e-3 0-2e-3 -0.0705 0-0.0808 0.10439-0.31495 0.20643-0.50389 0.24269-0.56657 0.0342 0 0.27146-0.18933 1.2141-0.4047v0.0808c2.0637-0.42658 5.4347-0.81016 9.7936-0.80939h79.644v-58.843h-15.54zm173.53 0v58.843h79.644c4.3589-5.1e-4 7.7299 0.38255 9.7936 0.8094v-0.0808c0.94265 0.21524 1.1799 0.37879 1.2141 0.4047 0.0365 0.0624 0.1383 0.25149 0.24268 0.56656 2e-3 0.0103-2e-3 0.0808 0 0.0808 0.36308 1.274 0.80939 4.2013 0.80939 8.4177v87.171h64.832v-99.636c0-8.5194-1.1142-16.517-3.8851-23.877v-0.0808h-0.0808c-2.9666-7.6422-8.0181-14.474-14.488-19.506l-0.0808-0.0808c-6.5125-4.9747-14.209-8.2593-22.663-10.279h-0.1616c-8.4762-1.9332-17.906-2.7519-28.571-2.7519h-71.064z"/>
</svg>
